^C:\USERS\MAGSHIMIM\DESKTOP\DEBUGWORKSHOP\DEBUGWORKSHOP\IMAGESANDWORDS\IMAGES.CPP
C:\USERS\MAGSHIMIM\DESKTOP\DEBUGWORKSHOP\DEBUGWORKSHOP\IMAGESANDWORDS\DEBUG\VC143.PDB
C:\USERS\MAGSHIMIM\DESKTOP\DEBUGWORKSHOP\DEBUGWORKSHOP\IMAGESANDWORDS\DEBUG\VC143.IDB
C:\USERS\MAGSHIMIM\DESKTOP\DEBUGWORKSHOP\DEBUGWORKSHOP\IMAGESANDWORDS\DEBUG\IMAGES.OBJ
